"Path","Platform","Compiled","Cooked","Permutations","Compiletime","CompiledDouble","CookedDouble"
"/Engine/EngineMaterials/PhAT_JointLimitMaterial.PhAT_JointLimitMaterial","0","0","16","1","0.000000","0","0"
"/Engine/EngineMaterials/GizmoMaterial.GizmoMaterial","0","0","8","1","0.000000","0","0"
"/Engine/EngineMaterials/M_InvalidLightmapSettings.M_InvalidLightmapSettings","0","0","24","1","0.000000","0","0"
"/Engine/EngineMaterials/EmissiveMeshMaterial.EmissiveMeshMaterial","0","0","10","1","0.000000","0","0"
"/Engine/EngineDebugMaterials/DebugMeshMaterial.DebugMeshMaterial","0","0","10","1","0.000000","0","0"
"/Engine/EngineMaterials/RemoveSurfaceMaterial.RemoveSurfaceMaterial","0","0","2","1","0.000000","0","0"
"/OculusVR/Materials/OculusMR_OpaqueColoredMaterial.OculusMR_OpaqueColoredMaterial","0","0","2","1","0.000000","0","0"
"/OculusVR/Materials/OculusMR_ChromaKey.OculusMR_ChromaKey","0","0","8","1","0.000000","0","0"
"/Engine/EngineDebugMaterials/M_VolumeRenderSphereTracePP.M_VolumeRenderSphereTracePP","0","0","4","1","0.000000","0","0"
"/SpeedTreeImporter/SpeedTree9/SpeedTreeBillboardMaster.SpeedTreeBillboardMaster","0","0","70","1","0.000000","0","0"
"/SpeedTreeImporter/SpeedTree9/SpeedTreeMaster.SpeedTreeMaster","0","0","96","1","0.000000","0","0"
"/Engine/EngineDebugMaterials/WireframeMaterial.WireframeMaterial","0","0","598","1","0.000000","0","0"
"/Engine/EngineDebugMaterials/VertexColorMaterial.VertexColorMaterial","0","0","90","1","0.000000","0","0"
"/Engine/EngineMaterials/DefaultMaterial.DefaultMaterial","0","0","123","1","0.000000","0","0"
"/Engine/ArtTools/RenderToTexture/Materials/Debug/M_Emissive_Color.M_Emissive_Color","0","0","2","1","0.000000","0","0"
"/Paper2D/DefaultSpriteMaterial.DefaultSpriteMaterial","0","0","62","2","0.000000","0","0"
"/OculusVR/Materials/PokeAHoleMaterial.PokeAHoleMaterial","0","0","8","1","0.000000","0","0"
"/Engine/EngineDebugMaterials/M_SimpleUnlitTranslucent.M_SimpleUnlitTranslucent","0","0","8","1","0.000000","0","0"
"/Engine/EditorMaterials/Camera/CineMat.CineMat","0","0","24","1","0.000000","0","0"
"/Engine/VREditor/TransformGizmo/TranslucentTransformGizmoMaterial.TranslucentTransformGizmoMaterial","0","0","8","1","0.000000","0","0"
"/Engine/VREditor/TransformGizmo/TransformGizmoMaterial.TransformGizmoMaterial","0","0","2","1","0.000000","0","0"
"/Engine/EngineMaterials/Widget3DPassThrough.Widget3DPassThrough","0","0","74","6","0.000000","0","0"
"/Engine/VREditor/TransformGizmo/Xray.Xray","0","0","12","1","0.000000","0","0"
"/Engine/VREditor/TransformGizmo/Main.Main","0","0","8","1","0.000000","0","0"
"/Engine/EngineMaterials/BaseFlattenMaterial.BaseFlattenMaterial","0","0","52","1","0.000000","0","0"
"/Engine/EngineSky/VolumetricClouds/m_SimpleVolumetricCloud.m_SimpleVolumetricCloud","0","0","44","1","0.000000","0","0"
"/Engine/EngineMaterials/DefaultPostProcessMaterial.DefaultPostProcessMaterial","0","0","6","1","0.000000","0","0"
"/Engine/EngineMaterials/DefaultLightFunctionMaterial.DefaultLightFunctionMaterial","0","0","17","1","0.000000","0","0"
"/Engine/EngineMaterials/DefaultDeferredDecalMaterial.DefaultDeferredDecalMaterial","0","0","115","1","0.000000","0","0"
"/Engine/EngineMaterials/WorldGridMaterial.WorldGridMaterial","0","0","871","1","0.000000","0","94"
"/Engine/EngineMaterials/DefaultTextMaterialOpaque.DefaultTextMaterialOpaque","0","0","35","1","0.000000","0","0"
"/Game/ParagonKhaimera/Characters/Heroes/Khaimera/Materials/M_Khaimera_WeaponLoins.M_Khaimera_WeaponLoins","0","0","139","1","0.000000","0","278"
"/Game/ParagonKhaimera/Characters/Heroes/Khaimera/Materials/M_Khaimera_Body_Skin.M_Khaimera_Body_Skin","0","0","108","1","0.000000","0","216"
"/Game/ParagonKhaimera/Characters/Heroes/Khaimera/Materials/M_Khaimera_Body.M_Khaimera_Body","0","0","108","1","0.000000","0","216"
"/Game/ParagonKhaimera/Characters/Heroes/Khaimera/Materials/M_Khaimera_Beast_V2.M_Khaimera_Beast_V2","0","0","180","2","0.000000","0","0"
"/Game/ParagonKhaimera/Characters/Heroes/Khaimera/Materials/M_Khaimera_ArmsLegs_Skin.M_Khaimera_ArmsLegs_Skin","0","0","108","1","0.000000","0","216"
"/Game/ParagonKhaimera/Characters/Global/Feathers/M_Global_Feathers.M_Global_Feathers","0","0","228","2","0.000000","0","456"
"/Game/ParagonKhaimera/Characters/Global/Mouth/Materials/M_Mouth_Master.M_Mouth_Master","0","0","108","1","0.000000","0","108"
"/Game/Geometry/Meshes/CubeMaterial.CubeMaterial","0","0","21","1","0.000000","0","0"
"/Engine/BasicShapes/BasicShapeMaterial.BasicShapeMaterial","0","0","63","1","0.000000","0","0"
"/Game/Felippe/Meshes/Ankh/M_Ankh2.M_Ankh2","0","0","12","1","0.000000","0","0"
"/Game/Felippe/Meshes/Ankh/M_Ankh.M_Ankh","0","0","12","1","0.000000","0","0"
"/Game/Assets/Materials/M_Temple.M_Temple","0","0","42","2","0.000000","0","0"
"/Game/ParagonGideon/Characters/Heroes/Gideon/Skins/Inquisitor/Materials/M_Gideon_Upperbody_skin_Inquisitor.M_Gideon_Upperbody_skin_Inquisitor","0","0","157","1","0.000000","0","157"
"/Game/ParagonGideon/Characters/Heroes/Gideon/Skins/Inquisitor/Materials/M_Gideon_Upperbody_Inquisitor.M_Gideon_Upperbody_Inquisitor","0","0","157","1","0.000000","0","157"
"/Game/ParagonGideon/Characters/Heroes/Gideon/Materials/M_Gideon_OuterRing_Particle.M_Gideon_OuterRing_Particle","0","0","300","2","0.000000","0","600"
"/Game/ParagonGideon/Characters/Heroes/Gideon/Skins/Inquisitor/Materials/M_Gideon_Lowerbody_Inquisitor.M_Gideon_Lowerbody_Inquisitor","0","0","157","1","0.000000","0","157"
"/Game/ParagonGideon/Characters/Heroes/Gideon/Skins/Inquisitor/Materials/M_Gideon_Head_Inquisitor.M_Gideon_Head_Inquisitor","0","0","95","1","0.000000","0","95"
"/Game/ParagonGideon/Characters/Global/Hair/Materials/M_HairSheet_Master2.M_HairSheet_Master2","0","0","360","2","0.000000","0","360"
"/Game/ParagonGideon/Characters/Global/Eyes/Materials/M_Global_GlowingEye.M_Global_GlowingEye","0","0","60","1","0.000000","0","0"
"/Game/ParagonGideon/Characters/Heroes/Gideon/Materials/M_Gideon_Ring_Glow.M_Gideon_Ring_Glow","0","0","48","1","0.000000","0","48"
"/Game/ParagonGideon/Characters/Global/Mouth/Materials/M_Mouth_Master.M_Mouth_Master","0","0","108","1","0.000000","0","108"
"/Game/ParagonGideon/Characters/Global/Eyes/Materials/M_TearLine.M_TearLine","0","0","198","1","0.000000","0","198"
"/Game/ParagonGideon/Characters/Global/Eyes/Materials/M_TearDuct_2.M_TearDuct_2","0","0","170","1","0.000000","0","170"
"/Game/ParagonGideon/Characters/Global/Eyes/Materials/M_Eye_Occlusion.M_Eye_Occlusion","0","0","80","1","0.000000","0","80"
"/Game/ParagonGideon/Characters/Global/Eyelash/M_EyelashMaster.M_EyelashMaster","0","0","110","1","0.000000","0","110"
"/Game/ParagonGideon/FX/Materials/Flares/M_GlowPoint_DistShrink_MASTER.M_GlowPoint_DistShrink_MASTER","0","0","48","1","0.000000","0","0"
"/Game/ParagonGideon/FX/Materials/Heroes/Gideon/M_Wisp_SplineThicken_Small.M_Wisp_SplineThicken_Small","0","0","32","1","0.000000","0","0"
"/Game/ParagonGideon/FX/Materials/Heroes/Gideon/M_Wispy_Smoke_Trail_Projectile.M_Wispy_Smoke_Trail_Projectile","0","0","30","1","0.000000","0","0"
"/Game/ParagonGideon/FX/Materials/Heroes/Gideon/M_Projectile_Ball.M_Projectile_Ball","0","0","30","1","0.000000","0","0"
"/Game/ParagonGideon/FX/Materials/Heroes/M_Radial_Blur_Refraction.M_Radial_Blur_Refraction","0","0","30","1","0.000000","0","0"
"/Game/ParagonGideon/FX/Materials/Flares/M_Lensflare_TB_Soft_LDR2HDR.M_Lensflare_TB_Soft_LDR2HDR","0","0","32","1","0.000000","0","0"
"/Game/ParagonGideon/FX/Materials/Flares/M_DarkFlare_DistShrink.M_DarkFlare_DistShrink","0","0","48","1","0.000000","0","0"
"/Game/ParagonGideon/FX/Materials/Sparks/M_Soft_Spark_Glow.M_Soft_Spark_Glow","0","0","32","1","0.000000","0","0"
"/Game/ParagonGideon/FX/Materials/Sparks/M_Hotdog_Spark_VLerp_MASTER.M_Hotdog_Spark_VLerp_MASTER","0","0","32","1","0.000000","0","0"
"/Game/ParagonGideon/FX/Materials/Smoke/M_Inky_Smoke_Burst.M_Inky_Smoke_Burst","0","0","60","1","0.000000","0","0"
"/Game/ParagonGideon/FX/Materials/Heroes/M_Spark_VelocityLerp_TeamColor.M_Spark_VelocityLerp_TeamColor","0","0","24","1","0.000000","0","0"
"/Engine/EditorMaterials/PreviewShadowIndicatorMaterial.PreviewShadowIndicatorMaterial","0","0","17","1","0.000000","0","0"
"/Engine/EngineDebugMaterials/DebugEditorMaterial.DebugEditorMaterial","0","0","8","1","0.000000","0","0"
"/Game/StarterContent/Materials/M_Basic_Wall.M_Basic_Wall","0","0","21","1","0.000000","0","0"
"/Game/StarterContent/Props/Materials/M_Frame.M_Frame","0","0","21","1","0.000000","0","0"
"/Game/StarterContent/Materials/M_Glass.M_Glass","0","0","42","1","0.000000","0","0"
"/Game/StarterContent/Particles/Materials/M_Dust_Particle.M_Dust_Particle","0","0","112","1","0.000000","0","0"
"/Game/StarterContent/Materials/M_Wood_Walnut.M_Wood_Walnut","0","0","21","1","0.000000","0","0"
"/Game/StarterContent/Materials/M_Wood_Pine.M_Wood_Pine","0","0","21","1","0.000000","0","0"
"/Game/StarterContent/Materials/M_Wood_Oak.M_Wood_Oak","0","0","21","1","0.000000","0","0"
"/Game/StarterContent/Materials/M_Wood_Floor_Walnut_Worn.M_Wood_Floor_Walnut_Worn","0","0","21","1","0.000000","0","0"
"/Game/StarterContent/Materials/M_Wood_Floor_Walnut_Polished.M_Wood_Floor_Walnut_Polished","0","0","21","1","0.000000","0","0"
"/Game/StarterContent/Materials/M_Water_Ocean.M_Water_Ocean","0","0","21","1","0.000000","0","0"
"/Game/StarterContent/Materials/M_Water_Lake.M_Water_Lake","0","0","21","1","0.000000","0","0"
"/Game/StarterContent/Materials/M_Tech_Panel.M_Tech_Panel","0","0","21","1","0.000000","0","0"
"/Game/StarterContent/Materials/M_Tech_Hex_Tile_Pulse.M_Tech_Hex_Tile_Pulse","0","0","21","1","0.000000","0","0"
"/Game/StarterContent/Materials/M_Tech_Hex_Tile.M_Tech_Hex_Tile","0","0","21","1","0.000000","0","0"
"/Game/StarterContent/Materials/M_Tech_Checker_Dot.M_Tech_Checker_Dot","0","0","21","1","0.000000","0","0"
"/Game/StarterContent/Materials/M_Rock_Slate.M_Rock_Slate","0","0","21","1","0.000000","0","0"
"/Game/StarterContent/Materials/M_Rock_Sandstone.M_Rock_Sandstone","0","0","21","1","0.000000","0","0"
"/Game/StarterContent/Materials/M_Rock_Marble_Polished.M_Rock_Marble_Polished","0","0","21","1","0.000000","0","0"
"/Game/StarterContent/Materials/M_Rock_Basalt.M_Rock_Basalt","0","0","21","1","0.000000","0","0"
"/Game/StarterContent/Materials/M_Metal_Steel.M_Metal_Steel","0","0","21","1","0.000000","0","0"
"/Game/StarterContent/Materials/M_Metal_Rust.M_Metal_Rust","0","0","21","1","0.000000","0","0"
"/Game/StarterContent/Materials/M_Metal_Gold.M_Metal_Gold","0","0","21","1","0.000000","0","0"
"/Game/StarterContent/Materials/M_Ground_Moss.M_Ground_Moss","0","0","21","1","0.000000","0","0"
"/Game/StarterContent/Materials/M_Ground_Gravel.M_Ground_Gravel","0","0","21","1","0.000000","0","0"
"/Game/StarterContent/Materials/M_Ground_Grass.M_Ground_Grass","0","0","21","1","0.000000","0","0"
"/Game/StarterContent/Materials/M_Concrete_Tiles.M_Concrete_Tiles","0","0","21","1","0.000000","0","0"
"/Game/StarterContent/Materials/M_Concrete_Panels.M_Concrete_Panels","0","0","21","1","0.000000","0","0"
"/Game/StarterContent/Materials/M_Concrete_Grime.M_Concrete_Grime","0","0","21","1","0.000000","0","0"
"/Game/StarterContent/Materials/M_CobbleStone_Smooth.M_CobbleStone_Smooth","0","0","21","1","0.000000","0","0"
"/Game/StarterContent/Materials/M_CobbleStone_Rough.M_CobbleStone_Rough","0","0","21","1","0.000000","0","0"
"/Game/StarterContent/Materials/M_CobbleStone_Pebble.M_CobbleStone_Pebble","0","0","21","1","0.000000","0","0"
"/Game/StarterContent/Materials/M_Ceramic_Tile_Checker.M_Ceramic_Tile_Checker","0","0","21","1","0.000000","0","0"
"/Game/StarterContent/Materials/M_Brick_Hewn_Stone.M_Brick_Hewn_Stone","0","0","21","1","0.000000","0","0"
"/Game/StarterContent/Materials/M_Brick_Cut_Stone.M_Brick_Cut_Stone","0","0","21","1","0.000000","0","0"
"/Game/StarterContent/Materials/M_Brick_Clay_Old.M_Brick_Clay_Old","0","0","21","1","0.000000","0","0"
"/Game/StarterContent/Materials/M_Brick_Clay_New.M_Brick_Clay_New","0","0","21","1","0.000000","0","0"
"/Game/StarterContent/Materials/M_Brick_Clay_Beveled.M_Brick_Clay_Beveled","0","0","21","1","0.000000","0","0"
"/Game/StarterContent/Materials/M_Concrete_Poured.M_Concrete_Poured","0","0","21","1","0.000000","0","0"
"/Game/StarterContent/Props/Materials/M_TableRound.M_TableRound","0","0","21","1","0.000000","0","0"
"/Game/StarterContent/Props/Materials/M_Statue.M_Statue","0","0","21","1","0.000000","0","0"
"/Game/StarterContent/Props/Materials/M_StatueGlass.M_StatueGlass","0","0","42","1","0.000000","0","0"
"/Game/StarterContent/Props/Materials/M_Chair.M_Chair","0","0","21","1","0.000000","0","0"
"/Game/StarterContent/Materials/M_Metal_Copper.M_Metal_Copper","0","0","21","1","0.000000","0","0"
"/Game/StarterContent/Materials/M_Metal_Burnished_Steel.M_Metal_Burnished_Steel","0","0","21","1","0.000000","0","0"
"/Game/StarterContent/Materials/M_Metal_Brushed_Nickel.M_Metal_Brushed_Nickel","0","0","21","1","0.000000","0","0"
"/Game/StarterContent/Props/Materials/M_Lamp.M_Lamp","0","0","21","1","0.000000","0","0"
"/Game/StarterContent/Particles/Materials/M_smoke_subUV.M_smoke_subUV","0","0","84","1","0.000000","0","0"
"/Game/StarterContent/Particles/Materials/M_Spark.M_Spark","0","0","24","1","0.000000","0","0"
"/Game/StarterContent/Particles/Materials/M_Radial_Gradient.M_Radial_Gradient","0","0","32","1","0.000000","0","0"
"/Game/StarterContent/Particles/Materials/M_Heat_Distortion.M_Heat_Distortion","0","0","36","1","0.000000","0","0"
"/Game/StarterContent/Particles/Materials/M_Fire_SubUV.M_Fire_SubUV","0","0","24","1","0.000000","0","0"
"/Game/StarterContent/Materials/M_Basic_Floor.M_Basic_Floor","0","0","21","1","0.000000","0","0"
"/Game/StarterContent/Materials/M_Metal_Chrome.M_Metal_Chrome","0","0","21","1","0.000000","0","0"
"/Engine/EngineMaterials/AntiAliasedTextMaterialTranslucent.AntiAliasedTextMaterialTranslucent","0","0","30","1","0.000000","0","0"
"/Engine/EngineSky/M_Sky_Panning_Clouds2.M_Sky_Panning_Clouds2","0","0","2","1","0.000000","0","0"
"/Engine/EditorMeshes/ColorCalibrator/M_GreyBall.M_GreyBall","0","0","21","1","0.000000","0","0"
"/Engine/EditorMeshes/ColorCalibrator/M_ColorGrid.M_ColorGrid","0","0","21","1","0.000000","0","0"
"/Engine/EditorMeshes/ColorCalibrator/M_ClearCoatBlack.M_ClearCoatBlack","0","0","21","1","0.000000","0","0"
"/Engine/EditorMeshes/ColorCalibrator/M_ClearCoat.M_ClearCoat","0","0","21","1","0.000000","0","0"
"/Engine/EditorMeshes/ColorCalibrator/M_ChromeBall.M_ChromeBall","0","0","33","1","0.000000","0","0"
"/Game/StarterContent/Blueprints/Assets/M_LightStage_Skybox_Master.M_LightStage_Skybox_Master","0","0","4","2","0.000000","0","0"
"/Game/StarterContent/Blueprints/Assets/M_LightStage_Arrows.M_LightStage_Arrows","0","0","2","1","0.000000","0","0"
"/Engine/EditorMaterials/Thumbnails/SkySphereMaterial.SkySphereMaterial","0","0","2","1","0.000000","0","0"
"/Game/StarterContent/Materials/M_AssetPlatform.M_AssetPlatform","0","0","21","1","0.000000","0","0"
"/Game/Nazato/Assets/Materials/M_Standard.M_Standard","0","21","21","1","17.626320","0","0"
"/Game/Felippe/Meshes/Vase1/M_Vase01.M_Vase01","0","0","12","1","0.000000","0","0"
"/Game/Felippe/Materials/M_Floor.M_Floor","0","0","74","1","0.000000","0","0"
"/Game/Megascans/Surfaces/Fort_Stone_Floor_tfykcbul/M_Floor.M_Floor","0","0","74","1","0.000000","0","0"
"/Game/Leonardo/Materials/M_Obelisco.M_Obelisco","0","0","21","1","0.000000","0","0"
"/Game/Leonardo/Materials/M_Base.M_Base","0","0","21","1","0.000000","0","0"
"/Game/Leonardo/Materials/M_Placa.M_Placa","0","0","74","1","0.000000","0","0"
"/Game/Leonardo/Materials/M_Floor_stones.M_Floor_stones","0","0","21","1","0.000000","0","0"
"/Game/Leonardo/Materials/M_Estatua01.M_Estatua01","0","0","12","1","0.000000","0","0"
"/Game/MSPresets/MS_DefaultMaterial_Fuzzy/MS_DefaultMaterial_Fuzzy.MS_DefaultMaterial_Fuzzy","0","0","46","1","0.000000","0","0"
"/Game/Leonardo/Meshs/Tumba/M_Tumba_Top.M_Tumba_Top","0","0","21","1","0.000000","0","0"
"/Game/Leonardo/Meshs/Tumba/M_tumba_bottom.M_tumba_bottom","0","0","21","1","0.000000","0","0"
"/Game/Leonardo/Materials/M_Colunas02.M_Colunas02","0","0","21","1","0.000000","0","0"
"/Game/MSPresets/MS_DefaultMaterial_CP/MS_DefaultMaterial_CP.MS_DefaultMaterial_CP","0","0","21","1","0.000000","0","0"
"/Game/Felippe/Meshes/Temple_Entrance/M_TempleEntrance.M_TempleEntrance","0","0","21","1","0.000000","0","0"
"/Game/Felippe/Meshes/SeatedStatue/Texture_0.Texture_0","0","0","21","1","0.000000","0","0"
"/Game/FirstPerson/Meshes/BaseMaterial.BaseMaterial","0","0","33","1","0.000000","0","0"
"/Game/FirstPerson/FPWeapon/Materials/M_FPGun.M_FPGun","0","0","76","1","0.000000","0","0"
"/Game/FirstPerson/Character/Materials/M_UE4Man_Body.M_UE4Man_Body","0","0","76","1","0.000000","0","0"
"/Engine/EngineSky/M_SkyTimeOfDay.M_SkyTimeOfDay","0","0","8","1","0.000000","0","0"
"/Game/Assets/Materials/M_Cliffs.M_Cliffs","0","0","42","2","0.000000","0","0"
"/Game/Felippe/Materials/M_Traps.M_Traps","0","0","21","1","0.000000","0","0"
"/Game/Felippe/Materials/M_HieroglyphWall.M_HieroglyphWall","0","0","21","1","0.000000","0","0"
"/Game/Megascans/Surfaces/Bright_Desert_Sand_sjzkfega/M_DesertSand.M_DesertSand","0","0","21","1","0.000000","0","46"
"/Game/Megascans/Surfaces/Fort_Stone_Floor_tfykcbul/M_Floor_BSP.M_Floor_BSP","0","0","21","1","0.000000","0","0"
"/Game/Felippe/Meshes/Tocha/wood.wood","0","0","12","1","0.000000","0","0"
"/Game/Felippe/Meshes/Tocha/rope.rope","0","0","12","1","0.000000","0","0"
"/Game/Felippe/Meshes/Tocha/metal.metal","0","0","12","1","0.000000","0","0"
"/Game/Assets/Materials/M_Pyramid.M_Pyramid","0","0","21","1","0.000000","0","0"
"/Game/Assets/Materials/M_PalmTree.M_PalmTree","0","0","288","2","0.000000","0","0"
"/Game/Assets/Materials/M_Monolith.M_Monolith","0","0","21","1","0.000000","0","0"
"/Game/Assets/Materials/M_ClothPieces.M_ClothPieces","0","0","48","1","0.000000","0","0"
"/Game/Assets/Materials/M_AncientBricks.M_AncientBricks","0","0","21","1","0.000000","0","0"
"/Game/Assets/Materials/M_AncientDoor.M_AncientDoor","0","0","21","1","0.000000","0","0"
"/Game/Assets/Materials/M_Cactus.M_Cactus","0","0","21","1","0.000000","0","0"
"/Game/ParagonKhaimera/FX/Materials/Trails/M_Ult_EyeTrails.M_Ult_EyeTrails","0","0","40","1","0.000000","0","0"
"/Game/ParagonGideon/Characters/Heroes/Gideon/Materials/M_Gideon_Upperbody_Skin.M_Gideon_Upperbody_Skin","0","0","157","1","0.000000","0","157"
"/Game/ParagonGideon/Characters/Heroes/Gideon/Materials/M_Gideon_Upperbody.M_Gideon_Upperbody","0","0","314","2","0.000000","0","314"
"/Game/ParagonGideon/Characters/Heroes/Gideon/Materials/M_Gideon_Head.M_Gideon_Head","0","0","95","1","0.000000","0","95"
"/Game/ParagonGideon/Characters/Global/Eyes/Materials/M_EyeRefractive.M_EyeRefractive","0","0","170","1","0.000000","0","170"
